%YAML 1.1
%TAG !u! tag:unity3d.com,2011:
--- !u!114 &-5707588003263857708
MonoBehaviour:
  m_ObjectHideFlags: 0
  m_CorrespondingSourceObject: {fileID: 0}
  m_PrefabInstance: {fileID: 0}
  m_PrefabAsset: {fileID: 0}
  m_GameObject: {fileID: 0}
  m_Enabled: 1
  m_EditorHideFlags: 0
  m_Script: {fileID: 11500000, guid: 9f6c631d933489d4ca7328a2a5983e10, type: 3}
  m_Name: HitSound
  m_EditorClassIdentifier: 
  DatabaseName: GameUISound
  SoundName: HitSound
  IgnoreListenerPause: 1
  Volume:
    MinValue: 0
    MaxValue: 0
  Pitch:
    MinValue: 0
    MaxValue: 0
  SpatialBlend: 0
  Loop: 0
  Mode: 0
  ResetSequenceAfterInactiveTime: 0
  SequenceResetTime: 5
  Sounds:
  - AudioClip: {fileID: 8300000, guid: 0d7231fa54e016d43993a598e286d09f, type: 3}
    Weight: 1
--- !u!114 &-2647661065339810137
MonoBehaviour:
  m_ObjectHideFlags: 0
  m_CorrespondingSourceObject: {fileID: 0}
  m_PrefabInstance: {fileID: 0}
  m_PrefabAsset: {fileID: 0}
  m_GameObject: {fileID: 0}
  m_Enabled: 1
  m_EditorHideFlags: 0
  m_Script: {fileID: 11500000, guid: 9f6c631d933489d4ca7328a2a5983e10, type: 3}
  m_Name: GameEnd
  m_EditorClassIdentifier: 
  DatabaseName: GameUISound
  SoundName: GameEnd
  IgnoreListenerPause: 1
  Volume:
    MinValue: -4.1
    MaxValue: -4.1
  Pitch:
    MinValue: 4.2
    MaxValue: 4.2
  SpatialBlend: 0
  Loop: 0
  Mode: 0
  ResetSequenceAfterInactiveTime: 0
  SequenceResetTime: 5
  Sounds:
  - AudioClip: {fileID: 8300000, guid: 3b1a0bb73250f5049a24b7575493bce0, type: 3}
    Weight: 1
--- !u!114 &-1645016910730048937
MonoBehaviour:
  m_ObjectHideFlags: 0
  m_CorrespondingSourceObject: {fileID: 0}
  m_PrefabInstance: {fileID: 0}
  m_PrefabAsset: {fileID: 0}
  m_GameObject: {fileID: 0}
  m_Enabled: 1
  m_EditorHideFlags: 0
  m_Script: {fileID: 11500000, guid: 9f6c631d933489d4ca7328a2a5983e10, type: 3}
  m_Name: Countdown
  m_EditorClassIdentifier: 
  DatabaseName: GameUISound
  SoundName: Countdown
  IgnoreListenerPause: 1
  Volume:
    MinValue: 0
    MaxValue: 0
  Pitch:
    MinValue: 0
    MaxValue: 0
  SpatialBlend: 0
  Loop: 0
  Mode: 1
  ResetSequenceAfterInactiveTime: 0
  SequenceResetTime: 5
  Sounds:
  - AudioClip: {fileID: 8300000, guid: 9525882a258aed747823728be717a0a4, type: 3}
    Weight: 1
--- !u!114 &11400000
MonoBehaviour:
  m_ObjectHideFlags: 0
  m_CorrespondingSourceObject: {fileID: 0}
  m_PrefabInstance: {fileID: 0}
  m_PrefabAsset: {fileID: 0}
  m_GameObject: {fileID: 0}
  m_Enabled: 1
  m_EditorHideFlags: 0
  m_Script: {fileID: 11500000, guid: 4b400ee936d64d0e93e3892c7c321e09, type: 3}
  m_Name: SoundDatabase_GameUISound
  m_EditorClassIdentifier: 
  DatabaseName: GameUISound
  OutputAudioMixerGroup: {fileID: 8371289259830393629, guid: b1acdd53b44dd174b8e20e45155c9020, type: 2}
  SoundNames:
  - No Sound
  - ButtonClick
  - Countdown
  - GameEnd
  - Gamestart
  - HitSound
  - No Sound
  Database:
  - {fileID: 3755781929566117682}
  - {fileID: 6861646067374057143}
  - {fileID: -1645016910730048937}
  - {fileID: -2647661065339810137}
  - {fileID: 5099217417598472434}
  - {fileID: -5707588003263857708}
--- !u!114 &3755781929566117682
MonoBehaviour:
  m_ObjectHideFlags: 0
  m_CorrespondingSourceObject: {fileID: 0}
  m_PrefabInstance: {fileID: 0}
  m_PrefabAsset: {fileID: 0}
  m_GameObject: {fileID: 0}
  m_Enabled: 1
  m_EditorHideFlags: 0
  m_Script: {fileID: 11500000, guid: 9f6c631d933489d4ca7328a2a5983e10, type: 3}
  m_Name: No Sound
  m_EditorClassIdentifier: 
  DatabaseName: GameUISound
  SoundName: No Sound
  IgnoreListenerPause: 1
  Volume:
    MinValue: 0
    MaxValue: 0
  Pitch:
    MinValue: 0
    MaxValue: 0
  SpatialBlend: 0
  Loop: 0
  Mode: 0
  ResetSequenceAfterInactiveTime: 0
  SequenceResetTime: 5
  Sounds: []
--- !u!114 &5099217417598472434
MonoBehaviour:
  m_ObjectHideFlags: 0
  m_CorrespondingSourceObject: {fileID: 0}
  m_PrefabInstance: {fileID: 0}
  m_PrefabAsset: {fileID: 0}
  m_GameObject: {fileID: 0}
  m_Enabled: 1
  m_EditorHideFlags: 0
  m_Script: {fileID: 11500000, guid: 9f6c631d933489d4ca7328a2a5983e10, type: 3}
  m_Name: Gamestart
  m_EditorClassIdentifier: 
  DatabaseName: GameUISound
  SoundName: Gamestart
  IgnoreListenerPause: 1
  Volume:
    MinValue: 0
    MaxValue: 0
  Pitch:
    MinValue: 0
    MaxValue: 0
  SpatialBlend: 0
  Loop: 0
  Mode: 0
  ResetSequenceAfterInactiveTime: 0
  SequenceResetTime: 5
  Sounds:
  - AudioClip: {fileID: 8300000, guid: 84b586e75e7f9a247bb8e6f121eecf51, type: 3}
    Weight: 1
--- !u!114 &6861646067374057143
MonoBehaviour:
  m_ObjectHideFlags: 0
  m_CorrespondingSourceObject: {fileID: 0}
  m_PrefabInstance: {fileID: 0}
  m_PrefabAsset: {fileID: 0}
  m_GameObject: {fileID: 0}
  m_Enabled: 1
  m_EditorHideFlags: 0
  m_Script: {fileID: 11500000, guid: 9f6c631d933489d4ca7328a2a5983e10, type: 3}
  m_Name: ButtonClick
  m_EditorClassIdentifier: 
  DatabaseName: GameUISound
  SoundName: ButtonClick
  IgnoreListenerPause: 1
  Volume:
    MinValue: 0
    MaxValue: 0
  Pitch:
    MinValue: 0
    MaxValue: 0
  SpatialBlend: 0
  Loop: 0
  Mode: 0
  ResetSequenceAfterInactiveTime: 0
  SequenceResetTime: 5
  Sounds:
  - AudioClip: {fileID: 8300000, guid: a60e820e362dca145ba5eb61ee936a4a, type: 3}
    Weight: 1
