%YAML 1.1
%TAG !u! tag:unity3d.com,2011:
--- !u!114 &11400000
MonoBehaviour:
  m_ObjectHideFlags: 0
  m_CorrespondingSourceObject: {fileID: 0}
  m_PrefabInstance: {fileID: 0}
  m_PrefabAsset: {fileID: 0}
  m_GameObject: {fileID: 0}
  m_Enabled: 1
  m_EditorHideFlags: 0
  m_Script: {fileID: 11500000, guid: 889794c411054f7ca8e6fbdc6728c846, type: 3}
  m_Name: _UIViewDatabase
  m_EditorClassIdentifier: 
  DatabaseType: 2
  CategoryNames:
  - Custom
  - Example
  - General
  - Game
  Categories:
  - {fileID: 11400000, guid: b01e98f4801f7124ba39e1dac4debf90, type: 2}
  - {fileID: 11400000, guid: 4f4ec6418d0e4c347b07e904cb079a61, type: 2}
  - {fileID: 11400000, guid: 7cc4677bb9ee72d4a95f941c8fd8b709, type: 2}
