%YAML 1.1
%TAG !u! tag:unity3d.com,2011:
--- !u!114 &-8858457056272057279
MonoBehaviour:
  m_ObjectHideFlags: 1
  m_CorrespondingSourceObject: {fileID: 0}
  m_PrefabInstance: {fileID: 0}
  m_PrefabAsset: {fileID: 0}
  m_GameObject: {fileID: 0}
  m_Enabled: 1
  m_EditorHideFlags: 0
  m_Script: {fileID: 11500000, guid: ea82279f292f4f6ebe47212017fa5f89, type: 3}
  m_Name: LoadSceneNode
  m_EditorClassIdentifier: 
  ErrorNodeNameIsEmpty: 0
  ErrorDuplicateNameFoundInGraph: 0
  m_inputSockets:
  - m_connectionMode: 1
    m_connections:
    - m_inputConnectionPoint: {x: -2, y: 4}
      m_outputConnectionPoint: {x: 202, y: 4}
      m_id: 5ea71300-ca7e-40e4-a48a-7cca40a119a3
      m_inputNodeId: 08404973-8da5-43b1-8615-6fb565d716f1
      m_inputSocketId: b573be55-b3d5-4796-bba9-f0a772994490
      m_outputNodeId: 9e101219-7980-4b55-9ab3-09a7b817683c
      m_outputSocketId: d031091c-faa4-4b07-a5c5-9121432a691b
    m_connectionPoints:
    - {x: -2, y: 4}
    - {x: 202, y: 4}
    m_direction: 0
    m_canBeDeleted: 0
    m_canBeReordered: 0
    m_curveModifier: 0
    m_height: 24
    m_width: 216
    m_x: 0
    m_y: 38
    m_id: b573be55-b3d5-4796-bba9-f0a772994490
    m_nodeId: 08404973-8da5-43b1-8615-6fb565d716f1
    m_socketName: InputSocket_0
    m_value: '{}'
    m_valueTypeQualifiedName: Doozy.Engine.Nody.Connections.PassthroughConnection,
      Assembly-CSharp, Version=0.0.0.0, Culture=neutral, PublicKeyToken=null
  m_outputSockets:
  - m_connectionMode: 0
    m_connections: []
    m_connectionPoints:
    - {x: -2, y: 4}
    - {x: 202, y: 4}
    m_direction: 1
    m_canBeDeleted: 0
    m_canBeReordered: 0
    m_curveModifier: 0
    m_height: 24
    m_width: 216
    m_x: 0
    m_y: 62
    m_id: f574c0e0-1363-4841-ba22-01b0ac01ddfe
    m_nodeId: 08404973-8da5-43b1-8615-6fb565d716f1
    m_socketName: OutputSocket_0
    m_value: '{}'
    m_valueTypeQualifiedName: Doozy.Engine.Nody.Connections.PassthroughConnection,
      Assembly-CSharp, Version=0.0.0.0, Culture=neutral, PublicKeyToken=null
  m_nodeType: 4
  m_allowDuplicateNodeName: 0
  m_allowEmptyNodeName: 0
  m_canBeDeleted: 1
  m_debugMode: 0
  m_useFixedUpdate: 0
  m_useLateUpdate: 0
  m_useUpdate: 0
  m_height: 192
  m_width: 216
  m_x: 600
  m_y: -192
  m_minimumInputSocketsCount: 1
  m_minimumOutputSocketsCount: 1
  m_graphId: 67a768cd-3e9d-450d-b8b7-e66e18aafe99
  m_id: 08404973-8da5-43b1-8615-6fb565d716f1
  m_name: Load Scene
  m_notes: 
  ErrorNoSceneName: 0
  ErrorBadBuildIndex: 0
  GetSceneBy: 0
  LoadSceneMode: 0
  AllowSceneActivation: 1
  SceneActivationDelay: 0.2
  SceneBuildIndex: 0
  SceneName: Menu
--- !u!114 &-8449415435275883657
MonoBehaviour:
  m_ObjectHideFlags: 1
  m_CorrespondingSourceObject: {fileID: 0}
  m_PrefabInstance: {fileID: 0}
  m_PrefabAsset: {fileID: 0}
  m_GameObject: {fileID: 0}
  m_Enabled: 1
  m_EditorHideFlags: 0
  m_Script: {fileID: 11500000, guid: 840a439e06374673a9115ed02deb5a54, type: 3}
  m_Name: UINode
  m_EditorClassIdentifier: 
  ErrorNodeNameIsEmpty: 0
  ErrorDuplicateNameFoundInGraph: 0
  m_inputSockets:
  - m_connectionMode: 1
    m_connections:
    - m_inputConnectionPoint: {x: -2, y: 4}
      m_outputConnectionPoint: {x: 106, y: 4}
      m_id: 8c06bdd0-b5fd-40a8-84ea-a70a66c88d77
      m_inputNodeId: a06f63b0-2158-487f-bde3-e18893ea53d9
      m_inputSocketId: e58b2df2-be33-471f-8cd7-0f9fae8556a7
      m_outputNodeId: 7a49fa91-2040-4d3d-9a38-d439d2b8c85b
      m_outputSocketId: 78b39979-a308-4f86-a1e1-a4ab1cc4805d
    m_connectionPoints:
    - {x: -2, y: 4}
    - {x: 202, y: 4}
    m_direction: 0
    m_canBeDeleted: 0
    m_canBeReordered: 0
    m_curveModifier: 0
    m_height: 24
    m_width: 216
    m_x: 0
    m_y: 38
    m_id: e58b2df2-be33-471f-8cd7-0f9fae8556a7
    m_nodeId: a06f63b0-2158-487f-bde3-e18893ea53d9
    m_socketName: InputSocket_0
    m_value: '{"ButtonCategory":"General","ButtonName":"Unnamed","GameEvent":"","TimeDelay":3.0,"Trigger":0}'
    m_valueTypeQualifiedName: Doozy.Engine.UI.Connections.UIConnection, Assembly-CSharp,
      Version=0.0.0.0, Culture=neutral, PublicKeyToken=null
  m_outputSockets:
  - m_connectionMode: 0
    m_connections: []
    m_connectionPoints:
    - {x: -2, y: 4}
    - {x: 202, y: 4}
    m_direction: 1
    m_canBeDeleted: 1
    m_canBeReordered: 1
    m_curveModifier: 0
    m_height: 24
    m_width: 216
    m_x: 0
    m_y: 62
    m_id: 15bcd4dc-5968-44d9-984d-3de31cdff63e
    m_nodeId: a06f63b0-2158-487f-bde3-e18893ea53d9
    m_socketName: OutputSocket_0
    m_value: '{"ButtonCategory":"General","ButtonName":"Back","GameEvent":"","TimeDelay":3.0,"Trigger":0}'
    m_valueTypeQualifiedName: Doozy.Engine.UI.Connections.UIConnection, Assembly-CSharp,
      Version=0.0.0.0, Culture=neutral, PublicKeyToken=null
  - m_connectionMode: 0
    m_connections:
    - m_inputConnectionPoint: {x: -2, y: 4}
      m_outputConnectionPoint: {x: 202, y: 4}
      m_id: 00d9e9dc-0255-4b1c-8447-f170030a30e2
      m_inputNodeId: 9e101219-7980-4b55-9ab3-09a7b817683c
      m_inputSocketId: 63004387-17c1-4221-b430-92dd23c2f4af
      m_outputNodeId: a06f63b0-2158-487f-bde3-e18893ea53d9
      m_outputSocketId: 9e2eaf89-d28a-48c7-a550-137d86d2af05
    m_connectionPoints:
    - {x: -2, y: 4}
    - {x: 202, y: 4}
    m_direction: 1
    m_canBeDeleted: 1
    m_canBeReordered: 1
    m_curveModifier: 0
    m_height: 24
    m_width: 216
    m_x: 0
    m_y: 86
    m_id: 9e2eaf89-d28a-48c7-a550-137d86d2af05
    m_nodeId: a06f63b0-2158-487f-bde3-e18893ea53d9
    m_socketName: OutputSocket_2
    m_value: '{"ButtonCategory":"General","ButtonName":"Unnamed","GameEvent":"","TimeDelay":0.0,"Trigger":4}'
    m_valueTypeQualifiedName: Doozy.Engine.UI.Connections.UIConnection, Assembly-CSharp,
      Version=0.0.0.0, Culture=neutral, PublicKeyToken=null
  m_nodeType: 4
  m_allowDuplicateNodeName: 0
  m_allowEmptyNodeName: 0
  m_canBeDeleted: 1
  m_debugMode: 1
  m_useFixedUpdate: 0
  m_useLateUpdate: 0
  m_useUpdate: 1
  m_height: 152
  m_width: 216
  m_x: 12
  m_y: -168
  m_minimumInputSocketsCount: 1
  m_minimumOutputSocketsCount: 1
  m_graphId: 67a768cd-3e9d-450d-b8b7-e66e18aafe99
  m_id: a06f63b0-2158-487f-bde3-e18893ea53d9
  m_name: UI Node - Bg
  m_notes: 
  m_onEnterShowViews:
  - Category: Example
    InstantAction: 0
    Name: Background
  m_onEnterHideViews: []
  m_onExitShowViews: []
  m_onExitHideViews: []
--- !u!114 &-7742774152878859633
MonoBehaviour:
  m_ObjectHideFlags: 1
  m_CorrespondingSourceObject: {fileID: 0}
  m_PrefabInstance: {fileID: 0}
  m_PrefabAsset: {fileID: 0}
  m_GameObject: {fileID: 0}
  m_Enabled: 1
  m_EditorHideFlags: 0
  m_Script: {fileID: 11500000, guid: 840a439e06374673a9115ed02deb5a54, type: 3}
  m_Name: UINode
  m_EditorClassIdentifier: 
  ErrorNodeNameIsEmpty: 0
  ErrorDuplicateNameFoundInGraph: 0
  m_inputSockets:
  - m_connectionMode: 1
    m_connections:
    - m_inputConnectionPoint: {x: -2, y: 4}
      m_outputConnectionPoint: {x: 202, y: 4}
      m_id: 00d9e9dc-0255-4b1c-8447-f170030a30e2
      m_inputNodeId: 9e101219-7980-4b55-9ab3-09a7b817683c
      m_inputSocketId: 63004387-17c1-4221-b430-92dd23c2f4af
      m_outputNodeId: a06f63b0-2158-487f-bde3-e18893ea53d9
      m_outputSocketId: 9e2eaf89-d28a-48c7-a550-137d86d2af05
    m_connectionPoints:
    - {x: -2, y: 4}
    - {x: 202, y: 4}
    m_direction: 0
    m_canBeDeleted: 0
    m_canBeReordered: 0
    m_curveModifier: 0
    m_height: 24
    m_width: 216
    m_x: 0
    m_y: 38
    m_id: 63004387-17c1-4221-b430-92dd23c2f4af
    m_nodeId: 9e101219-7980-4b55-9ab3-09a7b817683c
    m_socketName: InputSocket_0
    m_value: '{"ButtonCategory":"General","ButtonName":"Unnamed","GameEvent":"","TimeDelay":3.0,"Trigger":0}'
    m_valueTypeQualifiedName: Doozy.Engine.UI.Connections.UIConnection, Assembly-CSharp,
      Version=0.0.0.0, Culture=neutral, PublicKeyToken=null
  m_outputSockets:
  - m_connectionMode: 0
    m_connections: []
    m_connectionPoints:
    - {x: -2, y: 4}
    - {x: 202, y: 4}
    m_direction: 1
    m_canBeDeleted: 1
    m_canBeReordered: 1
    m_curveModifier: 0
    m_height: 24
    m_width: 216
    m_x: 0
    m_y: 62
    m_id: aae9bbf9-061a-499f-80c0-74b9a798a620
    m_nodeId: 9e101219-7980-4b55-9ab3-09a7b817683c
    m_socketName: OutputSocket_0
    m_value: '{"ButtonCategory":"General","ButtonName":"Back","GameEvent":"","TimeDelay":3.0,"Trigger":0}'
    m_valueTypeQualifiedName: Doozy.Engine.UI.Connections.UIConnection, Assembly-CSharp,
      Version=0.0.0.0, Culture=neutral, PublicKeyToken=null
  - m_connectionMode: 0
    m_connections:
    - m_inputConnectionPoint: {x: -2, y: 4}
      m_outputConnectionPoint: {x: 202, y: 4}
      m_id: 5ea71300-ca7e-40e4-a48a-7cca40a119a3
      m_inputNodeId: 08404973-8da5-43b1-8615-6fb565d716f1
      m_inputSocketId: b573be55-b3d5-4796-bba9-f0a772994490
      m_outputNodeId: 9e101219-7980-4b55-9ab3-09a7b817683c
      m_outputSocketId: d031091c-faa4-4b07-a5c5-9121432a691b
    m_connectionPoints:
    - {x: -2, y: 4}
    - {x: 202, y: 4}
    m_direction: 1
    m_canBeDeleted: 1
    m_canBeReordered: 1
    m_curveModifier: 0
    m_height: 24
    m_width: 216
    m_x: 0
    m_y: 86
    m_id: d031091c-faa4-4b07-a5c5-9121432a691b
    m_nodeId: 9e101219-7980-4b55-9ab3-09a7b817683c
    m_socketName: OutputSocket_1
    m_value: '{"ButtonCategory":"Start","ButtonName":"OK","GameEvent":"","TimeDelay":3.0,"Trigger":0}'
    m_valueTypeQualifiedName: Doozy.Engine.UI.Connections.UIConnection, Assembly-CSharp,
      Version=0.0.0.0, Culture=neutral, PublicKeyToken=null
  m_nodeType: 4
  m_allowDuplicateNodeName: 0
  m_allowEmptyNodeName: 0
  m_canBeDeleted: 1
  m_debugMode: 0
  m_useFixedUpdate: 0
  m_useLateUpdate: 0
  m_useUpdate: 0
  m_height: 152
  m_width: 216
  m_x: 300
  m_y: -180
  m_minimumInputSocketsCount: 1
  m_minimumOutputSocketsCount: 1
  m_graphId: 67a768cd-3e9d-450d-b8b7-e66e18aafe99
  m_id: 9e101219-7980-4b55-9ab3-09a7b817683c
  m_name: UI Node -Result
  m_notes: 
  m_onEnterShowViews:
  - Category: Game
    InstantAction: 0
    Name: Result
  m_onEnterHideViews: []
  m_onExitShowViews: []
  m_onExitHideViews: []
--- !u!114 &11400000
MonoBehaviour:
  m_ObjectHideFlags: 0
  m_CorrespondingSourceObject: {fileID: 0}
  m_PrefabInstance: {fileID: 0}
  m_PrefabAsset: {fileID: 0}
  m_GameObject: {fileID: 0}
  m_Enabled: 1
  m_EditorHideFlags: 0
  m_Script: {fileID: 11500000, guid: e021c5c27274514469ad2992883d55db, type: 3}
  m_Name: ResultGraph
  m_EditorClassIdentifier: 
  DebugMode: 0
  m_nodes:
  - {fileID: 7346896122450302334}
  - {fileID: -8449415435275883657}
  - {fileID: -7742774152878859633}
  - {fileID: -8858457056272057279}
  m_isSubGraph: 0
  m_version: 1
  m_description: 
  m_id: 67a768cd-3e9d-450d-b8b7-e66e18aafe99
  m_lastModified: 132698913060677764
--- !u!114 &7346896122450302334
MonoBehaviour:
  m_ObjectHideFlags: 1
  m_CorrespondingSourceObject: {fileID: 0}
  m_PrefabInstance: {fileID: 0}
  m_PrefabAsset: {fileID: 0}
  m_GameObject: {fileID: 0}
  m_Enabled: 1
  m_EditorHideFlags: 0
  m_Script: {fileID: 11500000, guid: d57ed238b12b4e09aba0c83117a55de7, type: 3}
  m_Name: StartNode
  m_EditorClassIdentifier: 
  ErrorNodeNameIsEmpty: 0
  ErrorDuplicateNameFoundInGraph: 0
  m_inputSockets: []
  m_outputSockets:
  - m_connectionMode: 0
    m_connections:
    - m_inputConnectionPoint: {x: -2, y: 4}
      m_outputConnectionPoint: {x: 106, y: 4}
      m_id: 8c06bdd0-b5fd-40a8-84ea-a70a66c88d77
      m_inputNodeId: a06f63b0-2158-487f-bde3-e18893ea53d9
      m_inputSocketId: e58b2df2-be33-471f-8cd7-0f9fae8556a7
      m_outputNodeId: 7a49fa91-2040-4d3d-9a38-d439d2b8c85b
      m_outputSocketId: 78b39979-a308-4f86-a1e1-a4ab1cc4805d
    m_connectionPoints:
    - {x: -2, y: 4}
    - {x: 106, y: 4}
    m_direction: 1
    m_canBeDeleted: 0
    m_canBeReordered: 0
    m_curveModifier: 0
    m_height: 24
    m_width: 120
    m_x: 0
    m_y: 38
    m_id: 78b39979-a308-4f86-a1e1-a4ab1cc4805d
    m_nodeId: 7a49fa91-2040-4d3d-9a38-d439d2b8c85b
    m_socketName: OutputSocket_0
    m_value: '{"ButtonCategory":"General","ButtonName":"Unnamed","GameEvent":"","TimeDelay":3.0,"Trigger":0}'
    m_valueTypeQualifiedName: Doozy.Engine.UI.Connections.UIConnection, Assembly-CSharp,
      Version=0.0.0.0, Culture=neutral, PublicKeyToken=null
  m_nodeType: 0
  m_allowDuplicateNodeName: 0
  m_allowEmptyNodeName: 0
  m_canBeDeleted: 0
  m_debugMode: 0
  m_useFixedUpdate: 0
  m_useLateUpdate: 0
  m_useUpdate: 0
  m_height: 80
  m_width: 120
  m_x: -132
  m_y: -168
  m_minimumInputSocketsCount: 1
  m_minimumOutputSocketsCount: 1
  m_graphId: 67a768cd-3e9d-450d-b8b7-e66e18aafe99
  m_id: 7a49fa91-2040-4d3d-9a38-d439d2b8c85b
  m_name: Start
  m_notes: 
  ErrorNodeIsNotConnected: 0
