%YAML 1.1
%TAG !u! tag:unity3d.com,2011:
--- !u!114 &-7425502152863098397
MonoBehaviour:
  m_ObjectHideFlags: 1
  m_CorrespondingSourceObject: {fileID: 0}
  m_PrefabInstance: {fileID: 0}
  m_PrefabAsset: {fileID: 0}
  m_GameObject: {fileID: 0}
  m_Enabled: 1
  m_EditorHideFlags: 0
  m_Script: {fileID: 11500000, guid: 840a439e06374673a9115ed02deb5a54, type: 3}
  m_Name: UINode
  m_EditorClassIdentifier: 
  ErrorNodeNameIsEmpty: 0
  ErrorDuplicateNameFoundInGraph: 0
  m_inputSockets:
  - m_connectionMode: 1
    m_connections:
    - m_inputConnectionPoint: {x: -2, y: 4}
      m_outputConnectionPoint: {x: 106, y: 4}
      m_id: 1eb7dce2-e314-4900-a034-338c9a034c1c
      m_inputNodeId: 329951b4-3ef4-4795-897d-5aa59b4bc145
      m_inputSocketId: 047d44a5-318b-40b6-9767-57cc0ade7e67
      m_outputNodeId: cd533e1b-220f-4c3e-80b6-4b3a138ac4ce
      m_outputSocketId: 28319348-493a-4503-b348-4edc38d25eeb
    m_connectionPoints:
    - {x: -2, y: 4}
    - {x: 202, y: 4}
    m_direction: 0
    m_canBeDeleted: 0
    m_canBeReordered: 0
    m_curveModifier: 0
    m_height: 24
    m_width: 216
    m_x: 0
    m_y: 38
    m_id: 047d44a5-318b-40b6-9767-57cc0ade7e67
    m_nodeId: 329951b4-3ef4-4795-897d-5aa59b4bc145
    m_socketName: InputSocket_0
    m_value: '{"ButtonCategory":"General","ButtonName":"Unnamed","GameEvent":"","TimeDelay":3.0,"Trigger":0}'
    m_valueTypeQualifiedName: Doozy.Engine.UI.Connections.UIConnection, Assembly-CSharp,
      Version=0.0.0.0, Culture=neutral, PublicKeyToken=null
  m_outputSockets:
  - m_connectionMode: 0
    m_connections: []
    m_connectionPoints:
    - {x: -2, y: 4}
    - {x: 202, y: 4}
    m_direction: 1
    m_canBeDeleted: 1
    m_canBeReordered: 1
    m_curveModifier: 0
    m_height: 24
    m_width: 216
    m_x: 0
    m_y: 62
    m_id: bd91c18d-58da-4a70-8be2-bc31aa6eae38
    m_nodeId: 329951b4-3ef4-4795-897d-5aa59b4bc145
    m_socketName: OutputSocket_0
    m_value: '{"ButtonCategory":"General","ButtonName":"Back","GameEvent":"","TimeDelay":3.0,"Trigger":0}'
    m_valueTypeQualifiedName: Doozy.Engine.UI.Connections.UIConnection, Assembly-CSharp,
      Version=0.0.0.0, Culture=neutral, PublicKeyToken=null
  - m_connectionMode: 0
    m_connections:
    - m_inputConnectionPoint: {x: -2, y: 4}
      m_outputConnectionPoint: {x: 202, y: 4}
      m_id: 641125c5-631f-4fc1-8f0d-f01133a2e354
      m_inputNodeId: 12f28844-6bee-4548-8ca0-c7f7f804247d
      m_inputSocketId: 701c2c18-74e1-4992-ba7d-df5e2f07c6a0
      m_outputNodeId: 329951b4-3ef4-4795-897d-5aa59b4bc145
      m_outputSocketId: 503ec7da-d1f2-433f-b250-9ea8383483e1
    m_connectionPoints:
    - {x: -2, y: 4}
    - {x: 202, y: 4}
    m_direction: 1
    m_canBeDeleted: 1
    m_canBeReordered: 1
    m_curveModifier: 0
    m_height: 24
    m_width: 216
    m_x: 0
    m_y: 86
    m_id: 503ec7da-d1f2-433f-b250-9ea8383483e1
    m_nodeId: 329951b4-3ef4-4795-897d-5aa59b4bc145
    m_socketName: OutputSocket_2
    m_value: '{"ButtonCategory":"General","ButtonName":"Unnamed","GameEvent":"","TimeDelay":0.0,"Trigger":4}'
    m_valueTypeQualifiedName: Doozy.Engine.UI.Connections.UIConnection, Assembly-CSharp,
      Version=0.0.0.0, Culture=neutral, PublicKeyToken=null
  m_nodeType: 4
  m_allowDuplicateNodeName: 0
  m_allowEmptyNodeName: 0
  m_canBeDeleted: 1
  m_debugMode: 0
  m_useFixedUpdate: 0
  m_useLateUpdate: 0
  m_useUpdate: 1
  m_height: 152
  m_width: 216
  m_x: -60
  m_y: 36
  m_minimumInputSocketsCount: 1
  m_minimumOutputSocketsCount: 1
  m_graphId: 67a768cd-3e9d-450d-b8b7-e66e18aafe99
  m_id: 329951b4-3ef4-4795-897d-5aa59b4bc145
  m_name: UI Node - Bg
  m_notes: 
  m_onEnterShowViews:
  - Category: Game
    InstantAction: 0
    Name: Result
  m_onEnterHideViews:
  - Category: Game
    InstantAction: 0
    Name: Play
  m_onExitShowViews: []
  m_onExitHideViews: []
--- !u!114 &-3668137831210512336
MonoBehaviour:
  m_ObjectHideFlags: 1
  m_CorrespondingSourceObject: {fileID: 0}
  m_PrefabInstance: {fileID: 0}
  m_PrefabAsset: {fileID: 0}
  m_GameObject: {fileID: 0}
  m_Enabled: 1
  m_EditorHideFlags: 0
  m_Script: {fileID: 11500000, guid: 8cfd05f381bf4be7bfd3441f9c18e799, type: 3}
  m_Name: ExitNode
  m_EditorClassIdentifier: 
  ErrorNodeNameIsEmpty: 0
  ErrorDuplicateNameFoundInGraph: 0
  m_inputSockets:
  - m_connectionMode: 1
    m_connections:
    - m_inputConnectionPoint: {x: -2, y: 4}
      m_outputConnectionPoint: {x: 202, y: 4}
      m_id: 9496ab79-8ce6-4bef-90aa-e890ebd104a9
      m_inputNodeId: d1fd662a-7fec-494e-887d-1caa7e0e7f2f
      m_inputSocketId: 4a4619de-7856-4a9a-90ed-6493c2ea68af
      m_outputNodeId: 12f28844-6bee-4548-8ca0-c7f7f804247d
      m_outputSocketId: 455414e8-1569-4ad7-81bc-a234675530fa
    m_connectionPoints:
    - {x: -2, y: 4}
    - {x: 106, y: 4}
    m_direction: 0
    m_canBeDeleted: 0
    m_canBeReordered: 0
    m_curveModifier: 0
    m_height: 24
    m_width: 120
    m_x: 0
    m_y: 38
    m_id: 4a4619de-7856-4a9a-90ed-6493c2ea68af
    m_nodeId: d1fd662a-7fec-494e-887d-1caa7e0e7f2f
    m_socketName: InputSocket_0
    m_value: '{"ButtonCategory":"General","ButtonName":"Unnamed","GameEvent":"","TimeDelay":3.0,"Trigger":0}'
    m_valueTypeQualifiedName: Doozy.Engine.UI.Connections.UIConnection, Assembly-CSharp,
      Version=0.0.0.0, Culture=neutral, PublicKeyToken=null
  m_outputSockets: []
  m_nodeType: 2
  m_allowDuplicateNodeName: 0
  m_allowEmptyNodeName: 0
  m_canBeDeleted: 0
  m_debugMode: 0
  m_useFixedUpdate: 0
  m_useLateUpdate: 0
  m_useUpdate: 0
  m_height: 80
  m_width: 120
  m_x: 516
  m_y: 84
  m_minimumInputSocketsCount: 1
  m_minimumOutputSocketsCount: 1
  m_graphId: 1c4be156-7e5a-4637-8df3-44431548eb1c
  m_id: d1fd662a-7fec-494e-887d-1caa7e0e7f2f
  m_name: Exit
  m_notes: 
  ErrorNodeIsNotConnected: 0
--- !u!114 &-3515807045302296196
MonoBehaviour:
  m_ObjectHideFlags: 1
  m_CorrespondingSourceObject: {fileID: 0}
  m_PrefabInstance: {fileID: 0}
  m_PrefabAsset: {fileID: 0}
  m_GameObject: {fileID: 0}
  m_Enabled: 1
  m_EditorHideFlags: 0
  m_Script: {fileID: 11500000, guid: f227b599d6ab425192e65e775ec76399, type: 3}
  m_Name: EnterNode
  m_EditorClassIdentifier: 
  ErrorNodeNameIsEmpty: 0
  ErrorDuplicateNameFoundInGraph: 0
  m_inputSockets: []
  m_outputSockets:
  - m_connectionMode: 0
    m_connections:
    - m_inputConnectionPoint: {x: -2, y: 4}
      m_outputConnectionPoint: {x: 106, y: 4}
      m_id: 1eb7dce2-e314-4900-a034-338c9a034c1c
      m_inputNodeId: 329951b4-3ef4-4795-897d-5aa59b4bc145
      m_inputSocketId: 047d44a5-318b-40b6-9767-57cc0ade7e67
      m_outputNodeId: cd533e1b-220f-4c3e-80b6-4b3a138ac4ce
      m_outputSocketId: 28319348-493a-4503-b348-4edc38d25eeb
    m_connectionPoints:
    - {x: -2, y: 4}
    - {x: 106, y: 4}
    m_direction: 1
    m_canBeDeleted: 0
    m_canBeReordered: 0
    m_curveModifier: 0
    m_height: 24
    m_width: 120
    m_x: 0
    m_y: 38
    m_id: 28319348-493a-4503-b348-4edc38d25eeb
    m_nodeId: cd533e1b-220f-4c3e-80b6-4b3a138ac4ce
    m_socketName: OutputSocket_0
    m_value: '{"ButtonCategory":"General","ButtonName":"Unnamed","GameEvent":"","TimeDelay":3.0,"Trigger":0}'
    m_valueTypeQualifiedName: Doozy.Engine.UI.Connections.UIConnection, Assembly-CSharp,
      Version=0.0.0.0, Culture=neutral, PublicKeyToken=null
  m_nodeType: 1
  m_allowDuplicateNodeName: 0
  m_allowEmptyNodeName: 0
  m_canBeDeleted: 0
  m_debugMode: 0
  m_useFixedUpdate: 0
  m_useLateUpdate: 0
  m_useUpdate: 0
  m_height: 80
  m_width: 120
  m_x: -192
  m_y: -36
  m_minimumInputSocketsCount: 1
  m_minimumOutputSocketsCount: 1
  m_graphId: 1c4be156-7e5a-4637-8df3-44431548eb1c
  m_id: cd533e1b-220f-4c3e-80b6-4b3a138ac4ce
  m_name: Enter
  m_notes: 
  ErrorNodeIsNotConnected: 0
--- !u!114 &11400000
MonoBehaviour:
  m_ObjectHideFlags: 0
  m_CorrespondingSourceObject: {fileID: 0}
  m_PrefabInstance: {fileID: 0}
  m_PrefabAsset: {fileID: 0}
  m_GameObject: {fileID: 0}
  m_Enabled: 1
  m_EditorHideFlags: 0
  m_Script: {fileID: 11500000, guid: e021c5c27274514469ad2992883d55db, type: 3}
  m_Name: ResultSubGraph
  m_EditorClassIdentifier: 
  DebugMode: 0
  m_nodes:
  - {fileID: 3210107143628512171}
  - {fileID: -7425502152863098397}
  - {fileID: -3515807045302296196}
  - {fileID: -3668137831210512336}
  m_isSubGraph: 1
  m_version: 1
  m_description: 
  m_id: 1c4be156-7e5a-4637-8df3-44431548eb1c
  m_lastModified: 132714953616869918
--- !u!114 &3210107143628512171
MonoBehaviour:
  m_ObjectHideFlags: 1
  m_CorrespondingSourceObject: {fileID: 0}
  m_PrefabInstance: {fileID: 0}
  m_PrefabAsset: {fileID: 0}
  m_GameObject: {fileID: 0}
  m_Enabled: 1
  m_EditorHideFlags: 0
  m_Script: {fileID: 11500000, guid: 840a439e06374673a9115ed02deb5a54, type: 3}
  m_Name: UINode
  m_EditorClassIdentifier: 
  ErrorNodeNameIsEmpty: 0
  ErrorDuplicateNameFoundInGraph: 0
  m_inputSockets:
  - m_connectionMode: 1
    m_connections:
    - m_inputConnectionPoint: {x: -2, y: 4}
      m_outputConnectionPoint: {x: 202, y: 4}
      m_id: 641125c5-631f-4fc1-8f0d-f01133a2e354
      m_inputNodeId: 12f28844-6bee-4548-8ca0-c7f7f804247d
      m_inputSocketId: 701c2c18-74e1-4992-ba7d-df5e2f07c6a0
      m_outputNodeId: 329951b4-3ef4-4795-897d-5aa59b4bc145
      m_outputSocketId: 503ec7da-d1f2-433f-b250-9ea8383483e1
    m_connectionPoints:
    - {x: -2, y: 4}
    - {x: 202, y: 4}
    m_direction: 0
    m_canBeDeleted: 0
    m_canBeReordered: 0
    m_curveModifier: 0
    m_height: 24
    m_width: 216
    m_x: 0
    m_y: 38
    m_id: 701c2c18-74e1-4992-ba7d-df5e2f07c6a0
    m_nodeId: 12f28844-6bee-4548-8ca0-c7f7f804247d
    m_socketName: InputSocket_0
    m_value: '{"ButtonCategory":"General","ButtonName":"Unnamed","GameEvent":"","TimeDelay":3.0,"Trigger":0}'
    m_valueTypeQualifiedName: Doozy.Engine.UI.Connections.UIConnection, Assembly-CSharp,
      Version=0.0.0.0, Culture=neutral, PublicKeyToken=null
  m_outputSockets:
  - m_connectionMode: 0
    m_connections: []
    m_connectionPoints:
    - {x: -2, y: 4}
    - {x: 202, y: 4}
    m_direction: 1
    m_canBeDeleted: 1
    m_canBeReordered: 1
    m_curveModifier: 0
    m_height: 24
    m_width: 216
    m_x: 0
    m_y: 62
    m_id: 110fe9fb-a411-44a9-9131-8cb213fcee5c
    m_nodeId: 12f28844-6bee-4548-8ca0-c7f7f804247d
    m_socketName: OutputSocket_0
    m_value: '{"ButtonCategory":"General","ButtonName":"Back","GameEvent":"","TimeDelay":3.0,"Trigger":0}'
    m_valueTypeQualifiedName: Doozy.Engine.UI.Connections.UIConnection, Assembly-CSharp,
      Version=0.0.0.0, Culture=neutral, PublicKeyToken=null
  - m_connectionMode: 0
    m_connections:
    - m_inputConnectionPoint: {x: -2, y: 4}
      m_outputConnectionPoint: {x: 202, y: 4}
      m_id: 9496ab79-8ce6-4bef-90aa-e890ebd104a9
      m_inputNodeId: d1fd662a-7fec-494e-887d-1caa7e0e7f2f
      m_inputSocketId: 4a4619de-7856-4a9a-90ed-6493c2ea68af
      m_outputNodeId: 12f28844-6bee-4548-8ca0-c7f7f804247d
      m_outputSocketId: 455414e8-1569-4ad7-81bc-a234675530fa
    m_connectionPoints:
    - {x: -2, y: 4}
    - {x: 202, y: 4}
    m_direction: 1
    m_canBeDeleted: 1
    m_canBeReordered: 1
    m_curveModifier: 0
    m_height: 24
    m_width: 216
    m_x: 0
    m_y: 86
    m_id: 455414e8-1569-4ad7-81bc-a234675530fa
    m_nodeId: 12f28844-6bee-4548-8ca0-c7f7f804247d
    m_socketName: OutputSocket_1
    m_value: '{"ButtonCategory":"Start","ButtonName":"OK","GameEvent":"","TimeDelay":3.0,"Trigger":0}'
    m_valueTypeQualifiedName: Doozy.Engine.UI.Connections.UIConnection, Assembly-CSharp,
      Version=0.0.0.0, Culture=neutral, PublicKeyToken=null
  m_nodeType: 4
  m_allowDuplicateNodeName: 0
  m_allowEmptyNodeName: 0
  m_canBeDeleted: 1
  m_debugMode: 0
  m_useFixedUpdate: 0
  m_useLateUpdate: 0
  m_useUpdate: 0
  m_height: 152
  m_width: 216
  m_x: 192
  m_y: 48
  m_minimumInputSocketsCount: 1
  m_minimumOutputSocketsCount: 1
  m_graphId: 67a768cd-3e9d-450d-b8b7-e66e18aafe99
  m_id: 12f28844-6bee-4548-8ca0-c7f7f804247d
  m_name: UI Node -Result
  m_notes: 
  m_onEnterShowViews:
  - Category: Game
    InstantAction: 0
    Name: Result
  m_onEnterHideViews: []
  m_onExitShowViews: []
  m_onExitHideViews:
  - Category: Game
    InstantAction: 0
    Name: Result
